<svg xmlns="http://www.w3.org/2000/svg" viewBox="-8065 -173.117 193.102 57.559">
  <defs>
    <style>
      .cls-1 {
        fill: #06ce7c;
      }

      .cls-2 {
        fill: #197f66;
      }
    </style>
  </defs>
  <g id="brand_vidramaq" data-name="Group 186" transform="translate(-8065 -173.117)">
    <g id="icon-vidramaq" data-name="Group 184">
      <path id="Path_223" data-name="Path 223" class="cls-1" d="M51.557,28.814h6L28.814,0V6L39.063,16.285,16.25,39.028,6,28.744H0L28.744,57.559v-6L23.8,46.608,46.608,23.866ZM21.2,43.976l-2.351-2.351L41.66,18.882l2.351,2.351Z"/>
      <path id="Path_224" data-name="Path 224" class="cls-2" d="M28.814,0,0,28.744H6L28.814,6Z"/>
      <path id="Path_225" data-name="Path 225" class="cls-2" d="M28.814,0,0,28.744H6L28.814,6Z"/>
      <path id="Path_226" data-name="Path 226" class="cls-2" d="M81.9,110.844,110.714,82.1h-6L81.9,104.843Z" transform="translate(-53.156 -53.286)"/>
      <path id="Path_227" data-name="Path 227" class="cls-2" d="M81.9,110.844,110.714,82.1h-6L81.9,104.843Z" transform="translate(-53.156 -53.286)"/>
    </g>
  </g>
</svg>
